Easy Access for West Java Data • jabr
…
You can install the released version of jabr from GitHub with:

# install.packages("remotes")
remotes::install_github("aswansyahputra/jabr")

Examples

This is a basic example which shows you how to solve a common problem:

Fetch single dataset

library(jabr)

(x <- jabr_list_dataset())
#> # A tibble: 1,508 x 5
#>    id     title              provider       last_modified url              
#>    <chr>  <chr>              <chr>          <date>        <chr>            
#>  1 43f28… Jumlah Kepala Kel… Dinas Kependu… 2019-09-25    https://data.jab…
#>  2 fe59a… Jumlah Kepala Kel… Dinas Kependu… 2019-09-25    https://data.jab…
#>  3 fde46… Jumlah Kepala Kel… Dinas Kependu… 2019-09-25    https://data.jab…
#>  4 772d6… Jumlah Kepala Kel… Dinas Kependu… 2019-09-25    https://data.jab…
#>  5 3a51a… Jumlah Aplikasi Y… Dinas Komunik… 2019-10-23    https://data.jab…
#>  6 ef3af… Indeks Keamanan I… Dinas Komunik… 2019-10-23    https://data.jab…
#>  7 67304… Jumlah Jaringan K… Dinas Komunik… 2019-10-23    https://data.jab…
#>  8 9fe01… Jumlah Kepala Kel… Dinas Kependu… 2019-10-23    https://data.jab…
#>  9 25b09… Jumlah Kepala Kel… Dinas Kependu… 2019-10-23    https://data.jab…
#> 10 1c81a… Jumlah Kepala Kel… Dinas Kependu… 2019-10-23    https://data.jab…
#> # … with 1,498 more rows

# suppose that we want to get dataset about "Jumlah Desa Siaga Di Provinsi Jawa Barat 2018".
# Id of this data is "88ef59c5".

jabr_fetch("88ef59c5")
#> # A tibble: 107 x 7
#>    title provinsi kode_kota_kabup… nama_kota_kabup… jenis_desa_kelu… jumlah
#>    <chr> <chr>               <int> <chr>            <chr>             <int>
#>  1 Juml… JAWA BA…             3204 KAB. BANDUNG     PRATAMA              28
#>  2 Juml… JAWA BA…             3204 KAB. BANDUNG     MADYA               114
#>  3 Juml… JAWA BA…             3204 KAB. BANDUNG     PURNAMA             117
#>  4 Juml… JAWA BA…             3204 KAB. BANDUNG     MANDIRI              21
#>  5 Juml… JAWA BA…             3217 KAB. BANDUNG BA… PRATAMA              15
#>  6 Juml… JAWA BA…             3217 KAB. BANDUNG BA… MADYA                98
#>  7 Juml… JAWA BA…             3217 KAB. BANDUNG BA… PURNAMA              36
#>  8 Juml… JAWA BA…             3217 KAB. BANDUNG BA… MANDIRI              15
#>  9 Juml… JAWA BA…             3216 KAB. BEKASI      PRATAMA             158
#> 10 Juml… JAWA BA…             3216 KAB. BEKASI      MADYA                26
#> # … with 97 more rows, and 1 more variable: satuan <chr>

## optionally, you can also remove the 'title' column
desa_siaga <- jabr_fetch("88ef59c5", keep_title = FALSE)
desa_siaga
#> # A tibble: 107 x 6
#>    provinsi kode_kota_kabup… nama_kota_kabup… jenis_desa_kelu… jumlah
#>    <chr>               <int> <chr>            <chr>             <int>
#>  1 JAWA BA…             3204 KAB. BANDUNG     PRATAMA              28
#>  2 JAWA BA…             3204 KAB. BANDUNG     MADYA               114
#>  3 JAWA BA…             3204 KAB. BANDUNG     PURNAMA             117
#>  4 JAWA BA…             3204 KAB. BANDUNG     MANDIRI              21
#>  5 JAWA BA…             3217 KAB. BANDUNG BA… PRATAMA              15
#>  6 JAWA BA…             3217 KAB. BANDUNG BA… MADYA                98
#>  7 JAWA BA…             3217 KAB. BANDUNG BA… PURNAMA              36
#>  8 JAWA BA…             3217 KAB. BANDUNG BA… MANDIRI              15
#>  9 JAWA BA…             3216 KAB. BEKASI      PRATAMA             158
#> 10 JAWA BA…             3216 KAB. BEKASI      MADYA                26
#> # … with 97 more rows, and 1 more variable: satuan <chr>
…
library(jabr)
library(dplyr)
#> 
#> Attaching package: 'dplyr'
#> The following objects are masked from 'package:stats':
#> 
#>     filter, lag
#> The following objects are masked from 'package:base':
#> 
#>     intersect, setdiff, setequal, union
library(stringr)
library(tidyr)

(x <- jabr_list_dataset())
#> # A tibble: 1,508 x 5
#>    id     title              provider       last_modified url              
#>    <chr>  <chr>              <chr>          <date>        <chr>            
#>  1 43f28… Jumlah Kepala Kel… Dinas Kependu… 2019-09-25    https://data.jab…
#>  2 fe59a… Jumlah Kepala Kel… Dinas Kependu… 2019-09-25    https://data.jab…
#>  3 fde46… Jumlah Kepala Kel… Dinas Kependu… 2019-09-25    https://data.jab…
#>  4 772d6… Jumlah Kepala Kel… Dinas Kependu… 2019-09-25    https://data.jab…
#>  5 3a51a… Jumlah Aplikasi Y… Dinas Komunik… 2019-10-23    https://data.jab…
#>  6 ef3af… Indeks Keamanan I… Dinas Komunik… 2019-10-23    https://data.jab…
#>  7 67304… Jumlah Jaringan K… Dinas Komunik… 2019-10-23    https://data.jab…
#>  8 9fe01… Jumlah Kepala Kel… Dinas Kependu… 2019-10-23    https://data.jab…
#>  9 25b09… Jumlah Kepala Kel… Dinas Kependu… 2019-10-23    https://data.jab…
#> 10 1c81a… Jumlah Kepala Kel… Dinas Kependu… 2019-10-23    https://data.jab…
#> # … with 1,498 more rows
…
## Step 3. Expand/unnest the datasets.
ahh_jabar <- 
  ahh_jabar_raw %>% 
  tidyr::unnest(dataset)
ahh_jabar
#> # A tibble: 243 x 6
#>    title provinsi kode_kota_kabup… nama_kota_kabup… angka_harapan_h… satuan
#>    <chr> <chr>               <int> <chr>                       <dbl> <chr> 
#>  1 Angk… JAWA BA…             3204 KAB. BANDUNG                 72.9 TAHUN 
#>  2 Angk… JAWA BA…             3217 KAB. BANDUNG BA…             71.5 TAHUN 
#>  3 Angk… JAWA BA…             3216 KAB. BEKASI                  72.9 TAHUN 
#>  4 Angk… JAWA BA…             3201 KAB. BOGOR                   70.3 TAHUN 
#>  5 Angk… JAWA BA…             3207 KAB. CIAMIS                  70.0 TAHUN 
#>  6 Angk… JAWA BA…             3203 KAB. CIANJUR                 68.8 TAHUN 
#>  7 Angk… JAWA BA…             3209 KAB. CIREBON                 71.1 TAHUN 
#>  8 Angk… JAWA BA…             3205 KAB. GARUT                   70.3 TAHUN 
#>  9 Angk… JAWA BA…             3212 KAB. INDRAMAYU               70.0 TAHUN 
#> 10 Angk… JAWA BA…             3215 KAB. KARAWANG                71.3 TAHUN 
#> # … with 233 more rows

## Step 4. (optional) Perform some data cleaning.
ahh_jabar <- 
  ahh_jabar %>% 
  tidyr::extract(title, "tahun", "(\\d{4})", convert = TRUE)
ahh_jabar
#> # A tibble: 243 x 6
#>    tahun provinsi kode_kota_kabup… nama_kota_kabup… angka_harapan_h… satuan
#>    <int> <chr>               <int> <chr>                       <dbl> <chr> 
#>  1  2010 JAWA BA…             3204 KAB. BANDUNG                 72.9 TAHUN 
#>  2  2010 JAWA BA…             3217 KAB. BANDUNG BA…             71.5 TAHUN 
#>  3  2010 JAWA BA…             3216 KAB. BEKASI                  72.9 TAHUN 
#>  4  2010 JAWA BA…             3201 KAB. BOGOR                   70.3 TAHUN 
#>  5  2010 JAWA BA…             3207 KAB. CIAMIS                  70.0 TAHUN 
#>  6  2010 JAWA BA…             3203 KAB. CIANJUR                 68.8 TAHUN 
#>  7  2010 JAWA BA…             3209 KAB. CIREBON                 71.1 TAHUN 
#>  8  2010 JAWA BA…             3205 KAB. GARUT                   70.3 TAHUN 
#>  9  2010 JAWA BA…             3212 KAB. INDRAMAYU               70.0 TAHUN 
#> 10  2010 JAWA BA…             3215 KAB. KARAWANG                71.3 TAHUN 
#> # … with 233 more rows
…
