Prevalence of Disaster in Jawa Barat • jabr
…
Next, let’s list the available dataset in Open Data Jawa Barat.

jabar_tbl <- 
  jabr_list_dataset()

jabar_tbl
#> # A tibble: 1,565 x 4
#>    title              provider           last_updated url                  
#>    <chr>              <chr>              <date>       <chr>                
#>  1 PDRB ADHK di Prov… BADAN PUSAT STATI… 2019-09-25   https://data.jabarpr…
#>  2 PDRB ADHK di Prov… BADAN PUSAT STATI… 2019-09-25   https://data.jabarpr…
#>  3 PDRB ADHK di Prov… BADAN PUSAT STATI… 2019-09-25   https://data.jabarpr…
#>  4 PDRB ADHK di Prov… BADAN PUSAT STATI… 2019-09-25   https://data.jabarpr…
#>  5 PDRB ADHK di Prov… BADAN PUSAT STATI… 2019-09-25   https://data.jabarpr…
#>  6 Koperasi Aktif Be… DINAS KOPERASI DA… 2019-09-25   https://data.jabarpr…
#>  7 Luas Penanaman Po… DINAS KEHUTANAN    2019-09-25   https://data.jabarpr…
#>  8 Luas Penanaman Po… DINAS KEHUTANAN    2019-09-25   https://data.jabarpr…
#>  9 Luas Penanaman Po… DINAS KEHUTANAN    2019-09-25   https://data.jabarpr…
#> 10 Luas Penanaman Po… DINAS KEHUTANAN    2019-09-25   https://data.jabarpr…
#> # … with 1,555 more rows
…
jabar_disaster <- 
  jabar_disaster_raw %>% 
  unnest(cols = c(dataset)) %>% 
  extract(title, "year", "(\\d{4})", convert = TRUE) %>% 
  select(
    year,
    district_code = kode_kota_kabupaten,
    district_name = kota_kabupaten,
    disaster = jenis_bencana,
    occurance = jumlah
  ) %>% 
  mutate_if(is.character, str_to_title)

jabar_disaster
#> # A tibble: 1,122 x 5
#>     year district_code district_name      disaster         occurance
#>    <int>         <int> <chr>              <chr>                <int>
#>  1  2012          3204 Kab. Bandung       Kebakaran                3
#>  2  2012          3204 Kab. Bandung       Banjir                  17
#>  3  2012          3204 Kab. Bandung       Tanah Longsor           12
#>  4  2012          3204 Kab. Bandung       Angin Topan              3
#>  5  2012          3204 Kab. Bandung       Gempa Bumi               0
#>  6  2012          3204 Kab. Bandung       Gelombang Pasang         0
#>  7  2012          3217 Kab. Bandung Barat Kebakaran                5
#>  8  2012          3217 Kab. Bandung Barat Banjir                   2
#>  9  2012          3217 Kab. Bandung Barat Tanah Longsor            7
#> 10  2012          3217 Kab. Bandung Barat Angin Topan              2
#> # … with 1,112 more rows
…
