List Dataset — jabr_list_dataset • jabr
…
      update
      (logical) Whether to update the dataset list.

    Value

    A tibble.

    Examples

# \donttest{
library(jabr)

jabr_list_dataset()
#> # A tibble: 1,516 x 5
#>    id     title                provider    last_modified url                    
#>    <chr>  <chr>                <chr>       <date>        <chr>                  
#>  1 d3c36… Angka Harapan Hidup… Badan Pusa… 2019-09-25    https://data.jabarprov…
#>  2 f9957… Angka Harapan Hidup… Badan Pusa… 2019-09-25    https://data.jabarprov…
#>  3 db602… Angka Harapan Hidup… Badan Pusa… 2019-09-25    https://data.jabarprov…
#>  4 cfd19… Angka Harapan Hidup… Badan Pusa… 2019-09-25    https://data.jabarprov…
#>  5 f90fb… Angka Harapan Hidup… Badan Pusa… 2019-09-25    https://data.jabarprov…
#>  6 ff53e… Angka Harapan Hidup… Badan Pusa… 2019-09-25    https://data.jabarprov…
#>  7 be7af… Angka Harapan Hidup… Badan Pusa… 2019-09-25    https://data.jabarprov…
#>  8 4c272… Angka Harapan Hidup… Badan Pusa… 2019-09-25    https://data.jabarprov…
#>  9 df7f3… Angka Harapan Hidup… Badan Pusa… 2019-09-25    https://data.jabarprov…
#> 10 67920… Angka Harapan Lama … Badan Pusa… 2019-09-25    https://data.jabarprov…
#> # … with 1,506 more rows
…
